Twitter Sentiment Philly | rjfranssen
…
bing_word_counts <- tidy_books %>%
  inner_join(get_sentiments("bing")) %>%
  count(word, sentiment, sort = TRUE) %>%
  ungroup()

bing_word_counts %>% head(25)
## # A tibble: 25 x 3
##    word       sentiment     n
##    <chr>      <chr>     <int>
##  1 corruption negative    120
##  2 like       positive     74
##  3 love       positive     58
##  4 great      positive     57
##  5 good       positive     56
##  6 best       positive     50
##  7 hurts      negative     42
##  8 well       positive     38
##  9 work       positive     29
## 10 free       positive     28
## # ... with 15 more rows
…
